409446396
30763209165615386
355279314630954584
25260098357876339
44476196011014354
1
131900148942721201
1
542379624
299605784
1183257545
1612383343701
78162591
298484822
195134564
5273029947324159
123115907682825255
1
927892881335903086491822796688401
32868463
7865338572548624
194410857
322865514
-22139083
276344764
-348920476
726478747
3779228160141000
246773388
16342944709867926053176125
442619833
76792506
14787334897231927994121616904929536
82856779409681487
28779959
24947107493097731197014681655933456
49445655411266596237718801959201
38988285117638430
-385454880
-231117491
249231791658406662
142177446
19024557392046516
12721141
818246913808278
-383394374
6066118818105330
10726751475323150835046500089160976
241341617
628435796
573846823
831779299
52316304
4391556458398978
105162988
-77272165
448685930
524403695209587361
440335347
2239372841147244
718352403
31724546
191919182
28917253878001920
592935612
1
630174992
3062708761863908829395807
228163105
56486362956911769
-345975490
4658122076045100374235133
594118255545720
47492166
-342125304
268423618943262348
462055444816827555303627918217216
-354334124
100242752
109912629
-1674393
433354246
-104299101
11386512110695963505341114557678096
57474792306861720170883098661702081
110629698
24179214147127312
370970665
1233199042
20697390
1074171423
905117718537809001
-8808790
531073936
264001714
982760427980100
323570959
54187995010410120
44626506115899771
192908683
114190853
38607811
558138771
23085905843997824352078267
362105550
54414384094682817651740672
11067731866217304173694007
294064203
323100843937838404
29311954171649016
5839144633530720
167814327914534580
111345562935168460
205016055
219037769
24254977275541980
-382696319
42246294
53300828771002925
285507083
18760343712378835
490685518595565225
30774460506394962
15148878211135676
124159365568071739566359308090379536
160695959
7485110847457870156472125
395329990452431076
1
2363030866682625320980779468960000
74016653466052423730893008159444481
856546573
53149114
248797883
3362348330932473023202070781640625
597724830
48791767
330296446
1264693960732936863333203
21250572888794790
539884754
3644581971351898
414031859
143614016094270235
-56781774
22471435201793692
1
178258868
206803494961354660
758377917
116819880
1
999184331
-550889552
-107374273
76745594523200726
125231022456176322
204214251
19113823731791924
-284079759
-216548611
66882620689979304
3616571858218099236580491064373776
8453986589521200
1122174479
13945950936749979
121531793
95181633621974757
305487092
-47567804
432292301
558939246474816
54267016176019840621992349696
-239684598
92421134483895000
-280782598
625400230
995242584
9084635
167783477
361847147
134506055
160708995
325826550
852219065
1
114334483
4629837440384982
133380671393025
-70206502
24363111185034048
81166795190945424
4909591744431032826432
442384986753723
13942138080373225
348792939
866175147
-445108564
5594894676641380
-7062932
657464973
158136057446656
40167697
-58492326
20249843702462270298692101307857201
1
13560028629089796
258793543
117731877
65951282621193124
40470263981389215
186817434
-677184666
931983351
993750530892557823169833002256
23070238
-181926114
729665682
633148868
1898110915131388
31686572937976152
5010417081019714
8420541703104
241430684
22349695
5053884474455674
5716623097935702
618130608
92877307634085208
2690530906748310
-145920000
