981797980
1018843643
944926151
1440316323
122207062
1268532170
764386135
1166927226
1174032916
932017440
566858332
1320353399
638715972
250732453
933699834
463950991
678384502
311271319
1394032297
828200627
1852489940
453585144
1432676176
1358547585
1500341259
890949116
1728676418
1094286077
277265803
1211718246
721806162
1377526592
813664650
1286869103
914193511
519268483
746869378
1576371447
563948882
1484315195
1310140587
1092465906
1466239051
1036926538
817275786
962825410
1604141143
1626682991
1327818183
987448543
926133452
769838753
989645579
702867883
1161968247
1070599264
257580015
761672128
1659447800
1613534932
1097038872
756347662
31250604
1005146000
734290711
413938242
687005923
441059382
1166291557
795772780
410191681
608957983
1008580192
719206972
1422688308
2953588
-572373732
-544378035
133473632
-754994769
281211341
-425310638
-180947953
-309702052
-239820833
92369066
-552127786
-628924805
327669856
243877840
840801368
-142787015
398763475
-105994172
195149396
31037950
-468391257
238831477
-561533306
-203727249
-546275853
881585286
-126887694
204349342
126065851
-163246001
588337657
195283020
-501009507
-490824752
-85013911
698019589
158907352
473024196
49069948
263437295
67042353
-415824497
65137200
-792974939
-40389523
-274288568
403863973
347067453
-184980380
326321294
467297943
-509831897
815386412
578728517
-769957572
-199609828
567144911
-51825257
-502586131
-807930273
-591986766
615199144
-223599959
-551921056
29114062
687033766
146726109
250316071
-56421259
858434194
-402613610
437039688
26355380
-282516271
75718144362515932
22847268878907095
440456634308146080
419546662431686720
367336653026237622
100392526161551716
268317353473950690
270560209649785605
181952735750154670
345053631061567440
4993633575866084
17630508742479367
39089438626808718
47736124487614656
230384398917113350
425511133275254034
77310210837747660
61298781064982098
164446250684034384
764485021404913322
262718592891996288
54973444331083234
269821602832498866
126628324620901659
28916847889747930
285437918822011591
729221251724750480
627331453655939970
122854736019395835
68312217625634000
477344570495147289
16270149569674551
778659171712850524
297362465009712081
385899203456928882
134014917341339936
6296639098020184
269360646993512408
35560948367838530
49083039180421059
15657270394870225
569587509445440644103672000
4162938666321797087046093083213305752051888747080401
1
41309857267685132261933113778793941787072699
177234951247151430543693903237943296
71869055046005771627202652037892351448849444958052304170000000
3228794879007865026701737719140625
229275187714110769
11906467951165505206218995881612756319122432
415149837004392836751348597787285996669652524092566403529414922460719821979910144
